<svg xmlns="http://www.w3.org/2000/svg" width="256" height="256" viewBox="0 0 256 256" version="1.1">
    <path
        d="M 32 112 L 32 149 21.500 149 L 11 149 11 160 L 11 171 21.500 171 L 32 171 32 181.500 L 32 192 42.500 192 L 53 192 53 181.500 L 53 171 128 171 L 203 171 203 181.500 L 203 192 213.500 192 L 224 192 224 181.500 L 224 171 234.500 171 L 245 171 245 160 L 245 149 234.500 149 L 224 149 224 112 L 224 75 213.500 75 L 203 75 203 82.505 L 203 90.010 196.250 94.998 C 182.720 104.996, 164.941 112.580, 148.119 115.530 C 137.357 117.418, 118.622 117.412, 107.760 115.517 C 91.389 112.663, 73.046 104.823, 59.750 94.998 L 53 90.010 53 82.505 L 53 75 42.500 75 L 32 75 32 112 M 53 126.500 L 53 149 64 149 L 75 149 75 132.652 L 75 116.304 70.910 114.460 C 68.661 113.445, 63.869 110.677, 60.262 108.308 C 56.655 105.938, 53.545 104, 53.352 104 C 53.158 104, 53 114.125, 53 126.500 M 198.637 106.413 C 197.063 107.701, 192.455 110.498, 188.398 112.627 L 181.022 116.500 181.011 132.750 L 181 149 192 149 L 203 149 203 126.500 C 203 114.125, 202.662 104.016, 202.250 104.036 C 201.838 104.056, 200.212 105.126, 198.637 106.413 M 85 134.883 L 85 149 96 149 L 107 149 107 137.737 L 107 126.473 98.250 124.296 C 93.438 123.099, 88.487 121.815, 87.250 121.443 L 85 120.767 85 134.883 M 159.250 123.877 L 149 126.497 149 137.749 L 149 149 160 149 L 171 149 171 135 C 171 127.300, 170.662 121.058, 170.250 121.128 C 169.838 121.199, 164.887 122.436, 159.250 123.877 M 117 138.500 L 117 149 128 149 L 139 149 139 138.500 L 139 128 128 128 L 117 128 117 138.500"
        stroke="none" fill="black" fill-rule="evenodd"/>
</svg>
